EESchema Schematic File Version 4
LIBS:PSU-C570A-S0-adapter-board-cache
EELAYER 29 0
EELAYER END
$Descr A4 11693 8268
encoding utf-8
Sheet 1 1
Title ""
Date ""
Rev ""
Comp ""
Comment1 ""
Comment2 ""
Comment3 ""
Comment4 ""
$EndDescr
Text Label 3800 2050 2    50   ~ 0
~SUPPLY_ON
Wire Wire Line
	3100 2750 3150 2750
Wire Wire Line
	3150 2750 3150 2850
Wire Wire Line
	3150 2850 3100 2850
Wire Wire Line
	3150 3050 3100 3050
Connection ~ 3150 2850
Wire Wire Line
	3100 3550 3150 3550
Wire Wire Line
	3150 3550 3150 3050
Connection ~ 3150 3050
Wire Wire Line
	3100 4050 3150 4050
Wire Wire Line
	3150 4050 3150 3550
Connection ~ 3150 3550
Wire Wire Line
	3100 4650 3150 4650
Wire Wire Line
	3150 4650 3150 4550
Wire Wire Line
	3150 4550 3100 4550
Wire Wire Line
	3150 4550 3150 4450
Wire Wire Line
	3150 4450 3100 4450
Connection ~ 3150 4550
Wire Wire Line
	3150 4450 3150 4050
Connection ~ 3150 4450
Connection ~ 3150 4050
Wire Wire Line
	3150 2750 3500 2750
Connection ~ 3150 2750
$Comp
L PSU-C570A-S0-adapter-board-rescue:GND-power #PWR02
U 1 1 5C4808C1
P 3800 2750
F 0 "#PWR02" H 3800 2500 50  0001 C CNN
F 1 "GND" H 3805 2577 50  0000 C CNN
F 2 "" H 3800 2750 50  0001 C CNN
F 3 "" H 3800 2750 50  0001 C CNN
	1    3800 2750
	1    0    0    -1  
$EndComp
Text Label 3800 3250 2    50   ~ 0
SUPPLY_KILL
NoConn ~ 3100 3350
NoConn ~ 3100 3650
Text Label 4000 3850 2    50   ~ 0
FAN_SPD_CTRL
Text Label 4000 3950 2    50   ~ 0
SUPPLY_OK
$Comp
L PSU-C570A-S0-adapter-board-rescue:Conn_01x06_Male-Connector J2
U 1 1 5C4829CE
P 9175 2050
F 0 "J2" H 9148 2023 50  0000 R CNN
F 1 "Conn_01x06_Male" H 9148 1932 50  0000 R CNN
F 2 "Connector_PinHeader_2.54mm:PinHeader_1x06_P2.54mm_Vertical" H 9175 2050 50  0001 C CNN
F 3 "~" H 9175 2050 50  0001 C CNN
	1    9175 2050
	-1   0    0    -1  
$EndComp
Text Label 8400 1950 0    50   ~ 0
~SUPPLY_KILL
Text Label 8400 1850 0    50   ~ 0
SUPPLY_ON
Text Label 8400 2150 0    50   ~ 0
~SUPPLY_OK
Text Label 8400 2050 0    50   ~ 0
~FAN_SPD_CTRL
Wire Wire Line
	8975 1850 8400 1850
Wire Wire Line
	8975 1950 8400 1950
Wire Wire Line
	8975 2050 8400 2050
Wire Wire Line
	8975 2150 8400 2150
$Comp
L PSU-C570A-S0-adapter-board-rescue:GND-power #PWR03
U 1 1 5C4836BA
P 8400 2250
F 0 "#PWR03" H 8400 2000 50  0001 C CNN
F 1 "GND" V 8405 2122 50  0000 R CNN
F 2 "" H 8400 2250 50  0001 C CNN
F 3 "" H 8400 2250 50  0001 C CNN
	1    8400 2250
	0    1    1    0   
$EndComp
Wire Wire Line
	8975 2350 8400 2350
Wire Wire Line
	8975 2250 8400 2250
Wire Wire Line
	3100 4750 3150 4750
Wire Wire Line
	3150 4750 3150 4850
Wire Wire Line
	3150 4850 3100 4850
Wire Wire Line
	3100 4950 3150 4950
Wire Wire Line
	3150 4950 3150 4850
Connection ~ 3150 4850
Wire Wire Line
	3150 4750 3550 4750
Connection ~ 3150 4750
$Comp
L PSU-C570A-S0-adapter-board-rescue:Jumper_NO_Small-Device JP5
U 1 1 5C48653C
P 8200 3400
F 0 "JP5" H 8200 3597 50  0000 C CNN
F 1 "KILL+~ON" H 8200 3499 50  0000 C CNN
F 2 "Jumper:SolderJumper-2_P1.3mm_Open_TrianglePad1.0x1.5mm" H 8200 3400 50  0001 C CNN
F 3 "~" H 8200 3400 50  0001 C CNN
	1    8200 3400
	1    0    0    -1  
$EndComp
Wire Wire Line
	8100 3400 7250 3400
Wire Wire Line
	8300 3400 9200 3400
Text Label 7250 3400 0    50   ~ 0
SUPPLY_KILL
Text Label 9200 3400 2    50   ~ 0
~SUPPLY_ON
Wire Wire Line
	3150 2850 3150 2950
Wire Wire Line
	3100 2950 3150 2950
Connection ~ 3150 2950
Wire Wire Line
	3150 2950 3150 3050
NoConn ~ 3100 2150
NoConn ~ 3100 2250
NoConn ~ 3100 2350
NoConn ~ 3100 2450
NoConn ~ 3100 2650
Wire Wire Line
	3100 4350 3250 4350
Wire Wire Line
	3250 4350 3250 4250
Wire Wire Line
	3250 4250 3100 4250
Wire Wire Line
	3100 3750 3250 3750
Wire Wire Line
	3250 3750 3250 4250
Connection ~ 3250 4250
Wire Wire Line
	3100 3150 3250 3150
Wire Wire Line
	3250 3150 3250 3750
Connection ~ 3250 3750
Wire Wire Line
	3100 2550 3250 2550
Wire Wire Line
	3250 2550 3250 3150
Connection ~ 3250 3150
Wire Wire Line
	3250 2550 3500 2550
Connection ~ 3250 2550
$Comp
L power:+12P #PWR0101
U 1 1 5CC5D45D
P 3800 4750
F 0 "#PWR0101" H 3800 4600 50  0001 C CNN
F 1 "+12P" H 3815 4923 50  0000 C CNN
F 2 "" H 3800 4750 50  0001 C CNN
F 3 "" H 3800 4750 50  0001 C CNN
	1    3800 4750
	1    0    0    -1  
$EndComp
$Comp
L power:+12V #PWR0102
U 1 1 5CC61D79
P 3800 2550
F 0 "#PWR0102" H 3800 2400 50  0001 C CNN
F 1 "+12V" H 3815 2723 50  0000 C CNN
F 2 "" H 3800 2550 50  0001 C CNN
F 3 "" H 3800 2550 50  0001 C CNN
	1    3800 2550
	1    0    0    -1  
$EndComp
$Comp
L power:+12V #PWR0103
U 1 1 5CC63587
P 8400 2350
F 0 "#PWR0103" H 8400 2200 50  0001 C CNN
F 1 "+12V" V 8415 2478 50  0000 L CNN
F 2 "" H 8400 2350 50  0001 C CNN
F 3 "" H 8400 2350 50  0001 C CNN
	1    8400 2350
	0    -1   -1   0   
$EndComp
$Comp
L lucc:51866-044LF J1
U 1 1 5CC75BB4
P 1800 2050
F 0 "J1" H 2556 2340 60  0000 C CNN
F 1 "51866-044LF" H 2556 2234 60  0000 C CNN
F 2 "lucc-footprint:Connector-FCI-51866-044LF" H 1800 2050 50  0001 C CNN
F 3 "" H 1800 2050 50  0001 C CNN
F 4 "51866-044LF" H 2000 2000 60  0001 L CNN "manf#"
F 5 "FDI" H 1800 2050 50  0001 C CNN "Manufacturer"
	1    1800 2050
	1    0    0    -1  
$EndComp
$Comp
L lucc:TCMT4106 U1
U 1 1 5CC7F8DB
P 4750 2150
F 0 "U1" H 4750 2515 50  0000 C CNN
F 1 "TCMT4106" H 4750 2424 50  0000 C CNN
F 2 "Package_SO:SOP-16_4.4x10.4mm_P1.27mm" H 4700 2150 50  0001 C CNN
F 3 "" H 4700 2150 50  0001 C CNN
	1    4750 2150
	-1   0    0    -1  
$EndComp
$Comp
L lucc:TCMT4106 U1
U 2 1 5CC82A35
P 4750 3350
F 0 "U1" H 4750 3715 50  0000 C CNN
F 1 "TCMT4106" H 4750 3624 50  0000 C CNN
F 2 "Package_SO:SOP-16_4.4x10.4mm_P1.27mm" H 4700 3350 50  0001 C CNN
F 3 "" H 4700 3350 50  0001 C CNN
	2    4750 3350
	-1   0    0    -1  
$EndComp
Wire Wire Line
	5050 2050 5150 2050
Wire Wire Line
	5050 3250 5150 3250
$Comp
L PSU-C570A-S0-adapter-board-rescue:GND-power #PWR0104
U 1 1 5CC93F8E
P 4450 2250
F 0 "#PWR0104" H 4450 2000 50  0001 C CNN
F 1 "GND" V 4455 2122 50  0000 R CNN
F 2 "" H 4450 2250 50  0001 C CNN
F 3 "" H 4450 2250 50  0001 C CNN
	1    4450 2250
	1    0    0    -1  
$EndComp
Text Label 5700 2050 2    50   ~ 0
SUPPLY_ON
Wire Wire Line
	3100 2050 4350 2050
$Comp
L PSU-C570A-S0-adapter-board-rescue:GND-power #PWR0105
U 1 1 5CCB038D
P 5050 2250
F 0 "#PWR0105" H 5050 2000 50  0001 C CNN
F 1 "GND" V 5055 2122 50  0000 R CNN
F 2 "" H 5050 2250 50  0001 C CNN
F 3 "" H 5050 2250 50  0001 C CNN
	1    5050 2250
	1    0    0    -1  
$EndComp
Wire Wire Line
	3100 3250 4350 3250
$Comp
L PSU-C570A-S0-adapter-board-rescue:GND-power #PWR0106
U 1 1 5CCC0EED
P 5050 3450
F 0 "#PWR0106" H 5050 3200 50  0001 C CNN
F 1 "GND" V 5055 3322 50  0000 R CNN
F 2 "" H 5050 3450 50  0001 C CNN
F 3 "" H 5050 3450 50  0001 C CNN
	1    5050 3450
	1    0    0    -1  
$EndComp
$Comp
L PSU-C570A-S0-adapter-board-rescue:GND-power #PWR0107
U 1 1 5CCC127E
P 4450 3450
F 0 "#PWR0107" H 4450 3200 50  0001 C CNN
F 1 "GND" V 4455 3322 50  0000 R CNN
F 2 "" H 4450 3450 50  0001 C CNN
F 3 "" H 4450 3450 50  0001 C CNN
	1    4450 3450
	1    0    0    -1  
$EndComp
Text Label 5700 3250 2    50   ~ 0
~SUPPLY_KILL
$Comp
L lucc:TCMT4106 U1
U 3 1 5CCCBC0B
P 4750 4450
F 0 "U1" H 4750 4815 50  0000 C CNN
F 1 "TCMT4106" H 4750 4724 50  0000 C CNN
F 2 "Package_SO:SOP-16_4.4x10.4mm_P1.27mm" H 4700 4450 50  0001 C CNN
F 3 "" H 4700 4450 50  0001 C CNN
	3    4750 4450
	-1   0    0    -1  
$EndComp
Wire Wire Line
	5050 4350 5150 4350
$Comp
L PSU-C570A-S0-adapter-board-rescue:GND-power #PWR0108
U 1 1 5CCCBC13
P 5050 4550
F 0 "#PWR0108" H 5050 4300 50  0001 C CNN
F 1 "GND" V 5055 4422 50  0000 R CNN
F 2 "" H 5050 4550 50  0001 C CNN
F 3 "" H 5050 4550 50  0001 C CNN
	1    5050 4550
	1    0    0    -1  
$EndComp
$Comp
L PSU-C570A-S0-adapter-board-rescue:GND-power #PWR0109
U 1 1 5CCCBC19
P 4450 4550
F 0 "#PWR0109" H 4450 4300 50  0001 C CNN
F 1 "GND" V 4455 4422 50  0000 R CNN
F 2 "" H 4450 4550 50  0001 C CNN
F 3 "" H 4450 4550 50  0001 C CNN
	1    4450 4550
	1    0    0    -1  
$EndComp
Text Label 5700 4350 2    50   ~ 0
~FAN_SPD_CTRL
$Comp
L lucc:TCMT4106 U1
U 4 1 5CCDC35C
P 4750 5550
F 0 "U1" H 4750 5915 50  0000 C CNN
F 1 "TCMT4106" H 4750 5824 50  0000 C CNN
F 2 "Package_SO:SOP-16_4.4x10.4mm_P1.27mm" H 4700 5550 50  0001 C CNN
F 3 "" H 4700 5550 50  0001 C CNN
	4    4750 5550
	1    0    0    -1  
$EndComp
Wire Wire Line
	5050 5450 5150 5450
$Comp
L PSU-C570A-S0-adapter-board-rescue:GND-power #PWR0110
U 1 1 5CCDC364
P 5050 5650
F 0 "#PWR0110" H 5050 5400 50  0001 C CNN
F 1 "GND" V 5055 5522 50  0000 R CNN
F 2 "" H 5050 5650 50  0001 C CNN
F 3 "" H 5050 5650 50  0001 C CNN
	1    5050 5650
	1    0    0    -1  
$EndComp
$Comp
L PSU-C570A-S0-adapter-board-rescue:GND-power #PWR0111
U 1 1 5CCDC36A
P 4450 5650
F 0 "#PWR0111" H 4450 5400 50  0001 C CNN
F 1 "GND" V 4455 5522 50  0000 R CNN
F 2 "" H 4450 5650 50  0001 C CNN
F 3 "" H 4450 5650 50  0001 C CNN
	1    4450 5650
	1    0    0    -1  
$EndComp
Wire Wire Line
	4450 5450 4350 5450
Wire Wire Line
	3100 3950 4000 3950
Text Label 5700 5450 2    50   ~ 0
~SUPPLY_OK
$Comp
L PSU-C570A-S0-adapter-board-rescue:Jumper_NO_Small-Device JP1
U 1 1 5CCE1D7E
P 4750 1650
F 0 "JP1" H 4750 1847 50  0000 C CNN
F 1 "~SUPPLY_ON" H 4750 1749 50  0000 C CNN
F 2 "Jumper:SolderJumper-2_P1.3mm_Open_TrianglePad1.0x1.5mm" H 4750 1650 50  0001 C CNN
F 3 "~" H 4750 1650 50  0001 C CNN
	1    4750 1650
	1    0    0    -1  
$EndComp
Wire Wire Line
	4650 1650 4350 1650
Wire Wire Line
	4350 1650 4350 2050
Connection ~ 4350 2050
Wire Wire Line
	4350 2050 4450 2050
Wire Wire Line
	4850 1650 5150 1650
Wire Wire Line
	5150 1650 5150 2050
Connection ~ 5150 2050
Wire Wire Line
	5150 2050 5700 2050
$Comp
L PSU-C570A-S0-adapter-board-rescue:Jumper_NO_Small-Device JP2
U 1 1 5CCE8B3B
P 4750 2850
F 0 "JP2" H 4750 3047 50  0000 C CNN
F 1 "SUPPLY_KILL" H 4750 2949 50  0000 C CNN
F 2 "Jumper:SolderJumper-2_P1.3mm_Open_TrianglePad1.0x1.5mm" H 4750 2850 50  0001 C CNN
F 3 "~" H 4750 2850 50  0001 C CNN
	1    4750 2850
	1    0    0    -1  
$EndComp
Wire Wire Line
	4650 2850 4350 2850
Wire Wire Line
	4350 2850 4350 3250
Connection ~ 4350 3250
Wire Wire Line
	4350 3250 4450 3250
Wire Wire Line
	4850 2850 5150 2850
Wire Wire Line
	5150 2850 5150 3250
Connection ~ 5150 3250
Wire Wire Line
	5150 3250 5700 3250
$Comp
L PSU-C570A-S0-adapter-board-rescue:Jumper_NO_Small-Device JP3
U 1 1 5CD0F6C9
P 4750 4000
F 0 "JP3" H 4750 4197 50  0000 C CNN
F 1 "FAN_SPD_CTRL" H 4750 4099 50  0000 C CNN
F 2 "Jumper:SolderJumper-2_P1.3mm_Open_TrianglePad1.0x1.5mm" H 4750 4000 50  0001 C CNN
F 3 "~" H 4750 4000 50  0001 C CNN
	1    4750 4000
	1    0    0    -1  
$EndComp
$Comp
L PSU-C570A-S0-adapter-board-rescue:Jumper_NO_Small-Device JP4
U 1 1 5CD10267
P 4750 5100
F 0 "JP4" H 4750 5297 50  0000 C CNN
F 1 "SUPPLY_OK" H 4750 5199 50  0000 C CNN
F 2 "Jumper:SolderJumper-2_P1.3mm_Open_TrianglePad1.0x1.5mm" H 4750 5100 50  0001 C CNN
F 3 "~" H 4750 5100 50  0001 C CNN
	1    4750 5100
	1    0    0    -1  
$EndComp
Wire Wire Line
	4650 4000 4350 4000
Wire Wire Line
	4350 4000 4350 4350
Wire Wire Line
	4350 4350 4450 4350
Wire Wire Line
	4850 4000 5150 4000
Wire Wire Line
	5150 4000 5150 4350
Connection ~ 5150 4350
Wire Wire Line
	5150 4350 5700 4350
Wire Wire Line
	4850 5100 5150 5100
Wire Wire Line
	5150 5100 5150 5450
Connection ~ 5150 5450
Wire Wire Line
	5150 5450 5700 5450
Wire Wire Line
	4650 5100 4350 5100
Wire Wire Line
	4350 5100 4350 5450
Connection ~ 4350 5450
Wire Wire Line
	4350 5450 4000 5450
Wire Wire Line
	4000 3950 4000 5450
Wire Wire Line
	3100 3850 4350 3850
Wire Wire Line
	4350 3850 4350 4000
Connection ~ 4350 4000
$Comp
L power:PWR_FLAG #FLG0101
U 1 1 5CD3ABFF
P 3500 2550
F 0 "#FLG0101" H 3500 2625 50  0001 C CNN
F 1 "PWR_FLAG" H 3500 2723 50  0000 C CNN
F 2 "" H 3500 2550 50  0001 C CNN
F 3 "~" H 3500 2550 50  0001 C CNN
	1    3500 2550
	1    0    0    -1  
$EndComp
Connection ~ 3500 2550
Wire Wire Line
	3500 2550 3800 2550
$Comp
L power:PWR_FLAG #FLG0102
U 1 1 5CD3D415
P 3550 4750
F 0 "#FLG0102" H 3550 4825 50  0001 C CNN
F 1 "PWR_FLAG" H 3550 4923 50  0000 C CNN
F 2 "" H 3550 4750 50  0001 C CNN
F 3 "~" H 3550 4750 50  0001 C CNN
	1    3550 4750
	1    0    0    -1  
$EndComp
Connection ~ 3550 4750
Wire Wire Line
	3550 4750 3800 4750
$Comp
L power:PWR_FLAG #FLG0103
U 1 1 5CD3DBD9
P 3500 2750
F 0 "#FLG0103" H 3500 2825 50  0001 C CNN
F 1 "PWR_FLAG" H 3500 2923 50  0000 C CNN
F 2 "" H 3500 2750 50  0001 C CNN
F 3 "~" H 3500 2750 50  0001 C CNN
	1    3500 2750
	-1   0    0    1   
$EndComp
Connection ~ 3500 2750
Wire Wire Line
	3500 2750 3800 2750
$EndSCHEMATC
