(module SW_DIP_x4_W8.61mm_Slide_LowProfile (layer F.Cu) (tedit 59AC4BED)
  (descr "4x-dip-switch, Slide, row spacing 8.61 mm (338 mils), SMD, LowProfile")
  (tags "DIP Switch Slide 8.61mm 338mil SMD LowProfile")
  (attr smd)
  (fp_text reference REF** (at 0 -6.92) (layer F.SilkS)
    (effects (font (size 1 1) (thickness 0.15)))
  )
  (fp_text value SW_DIP_x4_W8.61mm_Slide_LowProfile (at 0 6.92) (layer F.Fab)
    (effects (font (size 1 1) (thickness 0.15)))
  )
  (fp_line (start -2.34 -5.86) (end 3.34 -5.86) (layer F.Fab) (width 0.1))
  (fp_line (start 3.34 -5.86) (end 3.34 5.86) (layer F.Fab) (width 0.1))
  (fp_line (start 3.34 5.86) (end -3.34 5.86) (layer F.Fab) (width 0.1))
  (fp_line (start -3.34 5.86) (end -3.34 -4.86) (layer F.Fab) (width 0.1))
  (fp_line (start -3.34 -4.86) (end -2.34 -5.86) (layer F.Fab) (width 0.1))
  (fp_line (start -1.81 -4.445) (end -1.81 -3.175) (layer F.Fab) (width 0.1))
  (fp_line (start -1.81 -3.175) (end 1.81 -3.175) (layer F.Fab) (width 0.1))
  (fp_line (start 1.81 -3.175) (end 1.81 -4.445) (layer F.Fab) (width 0.1))
  (fp_line (start 1.81 -4.445) (end -1.81 -4.445) (layer F.Fab) (width 0.1))
  (fp_line (start 0 -4.445) (end 0 -3.175) (layer F.Fab) (width 0.1))
  (fp_line (start -1.81 -1.905) (end -1.81 -0.635) (layer F.Fab) (width 0.1))
  (fp_line (start -1.81 -0.635) (end 1.81 -0.635) (layer F.Fab) (width 0.1))
  (fp_line (start 1.81 -0.635) (end 1.81 -1.905) (layer F.Fab) (width 0.1))
  (fp_line (start 1.81 -1.905) (end -1.81 -1.905) (layer F.Fab) (width 0.1))
  (fp_line (start 0 -1.905) (end 0 -0.635) (layer F.Fab) (width 0.1))
  (fp_line (start -1.81 0.635) (end -1.81 1.905) (layer F.Fab) (width 0.1))
  (fp_line (start -1.81 1.905) (end 1.81 1.905) (layer F.Fab) (width 0.1))
  (fp_line (start 1.81 1.905) (end 1.81 0.635) (layer F.Fab) (width 0.1))
  (fp_line (start 1.81 0.635) (end -1.81 0.635) (layer F.Fab) (width 0.1))
  (fp_line (start 0 0.635) (end 0 1.905) (layer F.Fab) (width 0.1))
  (fp_line (start -1.81 3.175) (end -1.81 4.445) (layer F.Fab) (width 0.1))
  (fp_line (start -1.81 4.445) (end 1.81 4.445) (layer F.Fab) (width 0.1))
  (fp_line (start 1.81 4.445) (end 1.81 3.175) (layer F.Fab) (width 0.1))
  (fp_line (start 1.81 3.175) (end -1.81 3.175) (layer F.Fab) (width 0.1))
  (fp_line (start 0 3.175) (end 0 4.445) (layer F.Fab) (width 0.1))
  (fp_line (start -2.965 -5.92) (end 2.965 -5.92) (layer F.SilkS) (width 0.12))
  (fp_line (start 2.965 -5.92) (end 2.965 5.92) (layer F.SilkS) (width 0.12))
  (fp_line (start 2.965 5.92) (end -2.965 5.92) (layer F.SilkS) (width 0.12))
  (fp_line (start -2.965 5.92) (end -2.965 -2.54) (layer F.SilkS) (width 0.12))
  (fp_line (start -1.81 -4.445) (end -1.81 -3.175) (layer F.SilkS) (width 0.12))
  (fp_line (start -1.81 -3.175) (end 1.81 -3.175) (layer F.SilkS) (width 0.12))
  (fp_line (start 1.81 -3.175) (end 1.81 -4.445) (layer F.SilkS) (width 0.12))
  (fp_line (start 1.81 -4.445) (end -1.81 -4.445) (layer F.SilkS) (width 0.12))
  (fp_line (start 0 -4.445) (end 0 -3.175) (layer F.SilkS) (width 0.12))
  (fp_line (start -1.81 -1.905) (end -1.81 -0.635) (layer F.SilkS) (width 0.12))
  (fp_line (start -1.81 -0.635) (end 1.81 -0.635) (layer F.SilkS) (width 0.12))
  (fp_line (start 1.81 -0.635) (end 1.81 -1.905) (layer F.SilkS) (width 0.12))
  (fp_line (start 1.81 -1.905) (end -1.81 -1.905) (layer F.SilkS) (width 0.12))
  (fp_line (start 0 -1.905) (end 0 -0.635) (layer F.SilkS) (width 0.12))
  (fp_line (start -1.81 0.635) (end -1.81 1.905) (layer F.SilkS) (width 0.12))
  (fp_line (start -1.81 1.905) (end 1.81 1.905) (layer F.SilkS) (width 0.12))
  (fp_line (start 1.81 1.905) (end 1.81 0.635) (layer F.SilkS) (width 0.12))
  (fp_line (start 1.81 0.635) (end -1.81 0.635) (layer F.SilkS) (width 0.12))
  (fp_line (start 0 0.635) (end 0 1.905) (layer F.SilkS) (width 0.12))
  (fp_line (start -1.81 3.175) (end -1.81 4.445) (layer F.SilkS) (width 0.12))
  (fp_line (start -1.81 4.445) (end 1.81 4.445) (layer F.SilkS) (width 0.12))
  (fp_line (start 1.81 4.445) (end 1.81 3.175) (layer F.SilkS) (width 0.12))
  (fp_line (start 1.81 3.175) (end -1.81 3.175) (layer F.SilkS) (width 0.12))
  (fp_line (start 0 3.175) (end 0 4.445) (layer F.SilkS) (width 0.12))
  (fp_line (start -5.8 -6.2) (end -5.8 6.2) (layer F.CrtYd) (width 0.05))
  (fp_line (start -5.8 6.2) (end 5.8 6.2) (layer F.CrtYd) (width 0.05))
  (fp_line (start 5.8 6.2) (end 5.8 -6.2) (layer F.CrtYd) (width 0.05))
  (fp_line (start 5.8 -6.2) (end -5.8 -6.2) (layer F.CrtYd) (width 0.05))
  (fp_text user %R (at 2.575 0 90) (layer F.Fab)
    (effects (font (size 0.8 0.8) (thickness 0.15)))
  )
  (pad 1 smd rect (at -4.305 -3.81) (size 2.44 1.12) (layers F.Cu F.Paste F.Mask))
  (pad 5 smd rect (at 4.305 3.81) (size 2.44 1.12) (layers F.Cu F.Paste F.Mask))
  (pad 2 smd rect (at -4.305 -1.27) (size 2.44 1.12) (layers F.Cu F.Paste F.Mask))
  (pad 6 smd rect (at 4.305 1.27) (size 2.44 1.12) (layers F.Cu F.Paste F.Mask))
  (pad 3 smd rect (at -4.305 1.27) (size 2.44 1.12) (layers F.Cu F.Paste F.Mask))
  (pad 7 smd rect (at 4.305 -1.27) (size 2.44 1.12) (layers F.Cu F.Paste F.Mask))
  (pad 4 smd rect (at -4.305 3.81) (size 2.44 1.12) (layers F.Cu F.Paste F.Mask))
  (pad 8 smd rect (at 4.305 -3.81) (size 2.44 1.12) (layers F.Cu F.Paste F.Mask))
  (model ${KISYS3DMOD}/Buttons_Switches_SMD.3dshapes/SW_DIP_x4_W8.61mm_Slide_LowProfile.wrl
    (at (xyz 0 0 0))
    (scale (xyz 1 1 1))
    (rotate (xyz 0 0 90))
  )
)
