(module 1.8TFT_128x160_ST7735_NO_SD (layer F.Cu) (tedit 59EB6762)
  (fp_text reference REF** (at -26.5 -18.5) (layer F.SilkS)
    (effects (font (size 1 1) (thickness 0.15)))
  )
  (fp_text value 1.8TFT_128x160_ST7735 (at 0 -13.5) (layer F.Fab)
    (effects (font (size 1 1) (thickness 0.15)))
  )
  (fp_line (start 21.5 -15.75) (end 21.5 15.75) (layer Dwgs.User) (width 0.15))
  (fp_line (start 21.5 15.75) (end -20 15.75) (layer Dwgs.User) (width 0.15))
  (fp_line (start -20 15.75) (end -20 -15.75) (layer Dwgs.User) (width 0.15))
  (fp_line (start -20 -15.75) (end 21.5 -15.75) (layer Dwgs.User) (width 0.15))
  (fp_line (start 23 -17.25) (end 23 17.25) (layer Dwgs.User) (width 0.15))
  (fp_line (start -23.5 -17.25) (end -23.5 17.25) (layer Dwgs.User) (width 0.15))
  (fp_circle (center 26 14.25) (end 27.6 15.85) (layer Dwgs.User) (width 0.15))
  (fp_circle (center -26 14.25) (end -24.4 15.85) (layer Dwgs.User) (width 0.15))
  (fp_circle (center -26 -14.25) (end -24.4 -12.65) (layer Dwgs.User) (width 0.15))
  (fp_circle (center 26 -14.25) (end 27.6 -12.65) (layer Dwgs.User) (width 0.15))
  (fp_line (start -29 -17.25) (end 29 -17.25) (layer Dwgs.User) (width 0.15))
  (fp_line (start 29 -17.25) (end 29 17.25) (layer Dwgs.User) (width 0.15))
  (fp_line (start 29 17.25) (end -29 17.25) (layer Dwgs.User) (width 0.15))
  (fp_line (start -29 17.25) (end -29 -17.25) (layer Dwgs.User) (width 0.15))
  (pad 6 thru_hole oval (at 26.505 -3.815) (size 2.286 1.778) (drill 0.9144) (layers *.Cu *.Mask))
  (pad 5 thru_hole oval (at 26.505 -1.275) (size 2.286 1.778) (drill 0.9144) (layers *.Cu *.Mask))
  (pad 4 thru_hole oval (at 26.505 1.265) (size 2.286 1.778) (drill 0.9144) (layers *.Cu *.Mask))
  (pad 3 thru_hole oval (at 26.505 3.805) (size 2.286 1.778) (drill 0.9144) (layers *.Cu *.Mask))
  (pad 3 thru_hole oval (at 26.505 3.805) (size 2.286 1.778) (drill 0.9144) (layers *.Cu *.Mask))
  (pad 4 thru_hole oval (at 26.505 1.265) (size 2.286 1.778) (drill 0.9144) (layers *.Cu *.Mask))
  (pad 5 thru_hole oval (at 26.505 -1.275) (size 2.286 1.778) (drill 0.9144) (layers *.Cu *.Mask))
  (pad 6 thru_hole oval (at 26.505 -3.815) (size 2.286 1.778) (drill 0.9144) (layers *.Cu *.Mask))
  (pad 6 thru_hole oval (at 26.505 -3.815) (size 2.286 1.778) (drill 0.9144) (layers *.Cu *.Mask))
  (pad 5 thru_hole oval (at 26.505 -1.275) (size 2.286 1.778) (drill 0.9144) (layers *.Cu *.Mask))
  (pad 4 thru_hole oval (at 26.505 1.265) (size 2.286 1.778) (drill 0.9144) (layers *.Cu *.Mask))
  (pad 3 thru_hole oval (at 26.505 3.805) (size 2.286 1.778) (drill 0.9144) (layers *.Cu *.Mask))
  (pad 3 thru_hole oval (at 26.505 3.805) (size 2.286 1.778) (drill 0.9144) (layers *.Cu *.Mask))
  (pad 4 thru_hole oval (at 26.505 1.265) (size 2.286 1.778) (drill 0.9144) (layers *.Cu *.Mask))
  (pad 5 thru_hole oval (at 26.505 -1.275) (size 2.286 1.778) (drill 0.9144) (layers *.Cu *.Mask))
  (pad 6 thru_hole oval (at 26.505 -3.815) (size 2.286 1.778) (drill 0.9144) (layers *.Cu *.Mask))
  (pad 6 thru_hole oval (at 26.505 -3.815) (size 2.286 1.778) (drill 0.9144) (layers *.Cu *.Mask))
  (pad 5 thru_hole oval (at 26.505 -1.275) (size 2.286 1.778) (drill 0.9144) (layers *.Cu *.Mask))
  (pad 4 thru_hole oval (at 26.505 1.265) (size 2.286 1.778) (drill 0.9144) (layers *.Cu *.Mask))
  (pad 3 thru_hole oval (at 26.505 3.805) (size 2.286 1.778) (drill 0.9144) (layers *.Cu *.Mask))
  (pad 3 thru_hole oval (at 26.505 3.805) (size 2.286 1.778) (drill 0.9144) (layers *.Cu *.Mask))
  (pad 4 thru_hole oval (at 26.505 1.265) (size 2.286 1.778) (drill 0.9144) (layers *.Cu *.Mask))
  (pad 5 thru_hole oval (at 26.505 -1.275) (size 2.286 1.778) (drill 0.9144) (layers *.Cu *.Mask))
  (pad 6 thru_hole oval (at 26.505 -3.815) (size 2.286 1.778) (drill 0.9144) (layers *.Cu *.Mask))
  (pad 6 thru_hole oval (at 26.505 -3.815) (size 2.286 1.778) (drill 0.9144) (layers *.Cu *.Mask))
  (pad 5 thru_hole oval (at 26.505 -1.275) (size 2.286 1.778) (drill 0.9144) (layers *.Cu *.Mask))
  (pad 4 thru_hole oval (at 26.505 1.265) (size 2.286 1.778) (drill 0.9144) (layers *.Cu *.Mask))
  (pad 3 thru_hole oval (at 26.505 3.805) (size 2.286 1.778) (drill 0.9144) (layers *.Cu *.Mask))
  (pad 1 thru_hole rect (at 26.505 8.885) (size 2.286 2.286) (drill 0.9144) (layers *.Cu *.Mask))
  (pad 2 thru_hole oval (at 26.505 6.345) (size 2.286 1.778) (drill 0.9144) (layers *.Cu *.Mask))
  (pad 3 thru_hole oval (at 26.505 3.805) (size 2.286 1.778) (drill 0.9144) (layers *.Cu *.Mask))
  (pad 4 thru_hole oval (at 26.505 1.265) (size 2.286 1.778) (drill 0.9144) (layers *.Cu *.Mask))
  (pad 5 thru_hole oval (at 26.505 -1.275) (size 2.286 1.778) (drill 0.9144) (layers *.Cu *.Mask))
  (pad 6 thru_hole oval (at 26.505 -3.815) (size 2.286 1.778) (drill 0.9144) (layers *.Cu *.Mask))
  (pad 7 thru_hole oval (at 26.505 -6.355) (size 2.286 1.778) (drill 0.9144) (layers *.Cu *.Mask))
  (pad 8 thru_hole oval (at 26.505 -8.895) (size 2.286 1.778) (drill 0.9144) (layers *.Cu *.Mask))
)
