(module Fiducial_classic_Small_PasteTop_Type1 (layer F.Cu) (tedit 5B6397E8)
  (descr "Fiducial, Classical, Small, Copper Top, Typ 1, Passermarke,")
  (tags "Fiducial, Classical, Small, Copper Top, Typ 1, Passermarke,")
  (attr virtual)
  (fp_text reference REF** (at 0 -3.556) (layer F.SilkS) hide
    (effects (font (size 1 1) (thickness 0.15)))
  )
  (fp_text value Fiducial_classic_Small_PasteTop_Type1 (at 0.34036 3.4798) (layer F.Fab) hide
    (effects (font (size 1 1) (thickness 0.15)))
  )
  (fp_circle (center 0 0) (end 1.50114 0) (layer F.Paste) (width 0.381))
  (fp_line (start 0 -1.50114) (end 0 1.50114) (layer F.Paste) (width 0.381))
  (fp_line (start -1.50114 0) (end 1.50114 0) (layer F.Paste) (width 0.381))
)
