(module heatsink-507002B00000G (layer F.Cu) (tedit 59D4205D)
  (fp_text reference REF** (at 0.508 3.81) (layer F.SilkS)
    (effects (font (size 1 1) (thickness 0.15)))
  )
  (fp_text value heatsink-507002B00000G (at 7.5184 -12.4206) (layer F.Fab)
    (effects (font (size 1 1) (thickness 0.15)))
  )
  (fp_line (start 8.89 0) (end 8.89 -9.525) (layer F.SilkS) (width 0.762))
  (fp_line (start -8.89 0) (end -8.89 -9.525) (layer F.SilkS) (width 0.762))
  (fp_line (start -8.89 0) (end 8.89 0) (layer F.SilkS) (width 0.762))
  (fp_line (start 8.89 -9.525) (end 22.225 -9.525) (layer F.SilkS) (width 0.762))
  (fp_line (start -22.225 -9.525) (end -8.89 -9.525) (layer F.SilkS) (width 0.762))
)
