(module MDBT42Q (layer F.Cu) (tedit 5A4EE07B)
  (attr smd)
  (fp_text reference >NAME (at 0 -10) (layer F.Fab)
    (effects (font (size 0.762 0.762) (thickness 0.0508)))
  )
  (fp_text value >VALUE (at 0 10) (layer F.SilkS)
    (effects (font (size 0.762 0.762) (thickness 0.0508)))
  )
  (fp_line (start -5 -8) (end 5 -8) (layer F.SilkS) (width 0.127))
  (fp_line (start 5 -8) (end 5 8) (layer F.SilkS) (width 0.127))
  (fp_line (start 5 8) (end -5 8) (layer F.SilkS) (width 0.127))
  (fp_line (start -5 8) (end -5 -8) (layer F.SilkS) (width 0.127))
  (fp_line (start -5.3 -8) (end 5.3 -8) (layer Cmts.User) (width 0.1))
  (fp_line (start -5.3 -8) (end -5.3 -4.2) (layer Cmts.User) (width 0.1))
  (fp_line (start -5.3 -4.2) (end 5.3 -4.2) (layer Cmts.User) (width 0.1))
  (fp_line (start -0.5 -4.2) (end -0.5 -1.1) (layer Cmts.User) (width 0.05842))
  (fp_line (start -0.5 -1.1) (end 3.9 -1.1) (layer Cmts.User) (width 0.05))
  (fp_line (start -0.5 -4.2) (end 3.9 -4.2) (layer Cmts.User) (width 0.05))
  (fp_text user "No ground pad" (at 0 -6) (layer Cmts.User)
    (effects (font (size 0.8 0.8) (thickness 0.075)))
  )
  (fp_text user "Top layer no ground" (at 1.7 -2.5) (layer Cmts.User)
    (effects (font (size 0.25 0.25) (thickness 0.025)))
  )
  (fp_line (start 6 9) (end 6 -9) (layer F.CrtYd) (width 0.15))
  (fp_line (start 6 -9) (end -6 -9) (layer F.CrtYd) (width 0.15))
  (fp_line (start -6 -9) (end -6 9) (layer F.CrtYd) (width 0.15))
  (fp_line (start -6 9) (end 6 9) (layer F.CrtYd) (width 0.15))
  (fp_line (start 5.3 -8) (end 5.3 -4.2) (layer Cmts.User) (width 0.1))
  (fp_line (start 3.9 -4.2) (end 3.9 -1.1) (layer Cmts.User) (width 0.05))
  (pad 1 smd rect (at -4.7 -3.8) (size 1.6 0.8) (layers F.Cu F.Paste F.Mask))
  (pad 12 smd rect (at -4.2 7.7 90) (size 1.6 0.4) (layers F.Cu F.Paste F.Mask))
  (pad 25 smd rect (at 4.7 6.2 180) (size 1.6 0.4) (layers F.Cu F.Paste F.Mask))
  (pad 39 smd rect (at 4.7 -3.8 180) (size 1.6 0.8) (layers F.Cu F.Paste F.Mask))
  (pad 40 smd rect (at 2.9 -3.25 180) (size 1 0.4) (layers F.Cu F.Paste F.Mask))
  (pad 41 smd rect (at 2.9 -1.85 180) (size 1 0.4) (layers F.Cu F.Paste F.Mask))
  (pad 13 smd rect (at -3.5 7.7 90) (size 1.6 0.4) (layers F.Cu F.Paste F.Mask))
  (pad 14 smd rect (at -2.8 7.7 90) (size 1.6 0.4) (layers F.Cu F.Paste F.Mask))
  (pad 15 smd rect (at -2.1 7.7 90) (size 1.6 0.4) (layers F.Cu F.Paste F.Mask))
  (pad 16 smd rect (at -1.4 7.7 90) (size 1.6 0.4) (layers F.Cu F.Paste F.Mask))
  (pad 17 smd rect (at -0.7 7.7 90) (size 1.6 0.4) (layers F.Cu F.Paste F.Mask))
  (pad 18 smd rect (at 0 7.7 90) (size 1.6 0.4) (layers F.Cu F.Paste F.Mask))
  (pad 19 smd rect (at 0.7 7.7 90) (size 1.6 0.4) (layers F.Cu F.Paste F.Mask))
  (pad 20 smd rect (at 1.4 7.7 90) (size 1.6 0.4) (layers F.Cu F.Paste F.Mask))
  (pad 21 smd rect (at 2.1 7.7 90) (size 1.6 0.4) (layers F.Cu F.Paste F.Mask))
  (pad 22 smd rect (at 2.8 7.7 90) (size 1.6 0.4) (layers F.Cu F.Paste F.Mask))
  (pad 23 smd rect (at 3.5 7.7 90) (size 1.6 0.4) (layers F.Cu F.Paste F.Mask))
  (pad 24 smd rect (at 4.2 7.7 90) (size 1.6 0.4) (layers F.Cu F.Paste F.Mask))
  (pad 26 smd rect (at 4.7 5.5 180) (size 1.6 0.4) (layers F.Cu F.Paste F.Mask))
  (pad 27 smd rect (at 4.7 4.8 180) (size 1.6 0.4) (layers F.Cu F.Paste F.Mask))
  (pad 28 smd rect (at 4.7 4.1 180) (size 1.6 0.4) (layers F.Cu F.Paste F.Mask))
  (pad 29 smd rect (at 4.7 3.4 180) (size 1.6 0.4) (layers F.Cu F.Paste F.Mask))
  (pad 30 smd rect (at 4.7 2.7 180) (size 1.6 0.4) (layers F.Cu F.Paste F.Mask))
  (pad 31 smd rect (at 4.7 2 180) (size 1.6 0.4) (layers F.Cu F.Paste F.Mask))
  (pad 32 smd rect (at 4.7 1.3 180) (size 1.6 0.4) (layers F.Cu F.Paste F.Mask))
  (pad 33 smd rect (at 4.7 0.6 180) (size 1.6 0.4) (layers F.Cu F.Paste F.Mask))
  (pad 34 smd rect (at 4.7 -0.1 180) (size 1.6 0.4) (layers F.Cu F.Paste F.Mask))
  (pad 35 smd rect (at 4.7 -0.8 180) (size 1.6 0.4) (layers F.Cu F.Paste F.Mask))
  (pad 36 smd rect (at 4.7 -1.5 180) (size 1.6 0.4) (layers F.Cu F.Paste F.Mask))
  (pad 37 smd rect (at 4.7 -2.2 180) (size 1.6 0.4) (layers F.Cu F.Paste F.Mask))
  (pad 38 smd rect (at 4.7 -2.9 180) (size 1.6 0.4) (layers F.Cu F.Paste F.Mask))
  (pad 2 smd rect (at -4.7 -0.8) (size 1.6 0.4) (layers F.Cu F.Paste F.Mask))
  (pad 3 smd rect (at -4.7 -0.1) (size 1.6 0.4) (layers F.Cu F.Paste F.Mask))
  (pad 4 smd rect (at -4.7 0.6) (size 1.6 0.4) (layers F.Cu F.Paste F.Mask))
  (pad 5 smd rect (at -4.7 1.3) (size 1.6 0.4) (layers F.Cu F.Paste F.Mask))
  (pad 6 smd rect (at -4.7 2) (size 1.6 0.4) (layers F.Cu F.Paste F.Mask))
  (pad 7 smd rect (at -4.7 2.7) (size 1.6 0.4) (layers F.Cu F.Paste F.Mask))
  (pad 8 smd rect (at -4.7 3.4) (size 1.6 0.4) (layers F.Cu F.Paste F.Mask))
  (pad 9 smd rect (at -4.7 4.1) (size 1.6 0.4) (layers F.Cu F.Paste F.Mask))
  (pad 10 smd rect (at -4.7 4.8) (size 1.6 0.4) (layers F.Cu F.Paste F.Mask))
  (pad 11 smd rect (at -4.7 5.5) (size 1.6 0.4) (layers F.Cu F.Paste F.Mask))
)
