(module mouse_teeth (layer F.Cu) (tedit 5A4740FB)
  (fp_text reference REF** (at 0 1.905) (layer F.SilkS) hide
    (effects (font (size 1 1) (thickness 0.15)))
  )
  (fp_text value mouse_teeth (at 0 -1.778) (layer F.Fab) hide
    (effects (font (size 1 1) (thickness 0.15)))
  )
  (pad "" np_thru_hole circle (at -2.54 0) (size 0.508 0.508) (drill 0.508) (layers *.Cu *.Mask))
  (pad 21 np_thru_hole circle (at -1.524 0) (size 0.508 0.508) (drill 0.508) (layers *.Cu *.Mask))
  (pad 31 np_thru_hole circle (at -0.508 0) (size 0.508 0.508) (drill 0.508) (layers *.Cu *.Mask))
  (pad 41 np_thru_hole circle (at 0.508 0) (size 0.508 0.508) (drill 0.508) (layers *.Cu *.Mask))
  (pad 51 np_thru_hole circle (at 1.524 0) (size 0.508 0.508) (drill 0.508) (layers *.Cu *.Mask))
  (pad 61 np_thru_hole circle (at 2.54 0) (size 0.508 0.508) (drill 0.508) (layers *.Cu *.Mask))
)
