(module TO-218-2_SOT93_Vertical (layer F.Cu) (tedit 58CE52AD)
  (descr "TO-218-2, Vertical, RM 10.94mm, SOT93")
  (tags "TO-218-2 Vertical RM 10.94mm SOT93")
  (fp_text reference REF** (at 5.47 -4.12) (layer F.SilkS)
    (effects (font (size 1 1) (thickness 0.15)))
  )
  (fp_text value TO-218-2_SOT93_Vertical (at 5.47 4.95) (layer F.Fab)
    (effects (font (size 1 1) (thickness 0.15)))
  )
  (fp_text user %R (at 5.47 -4.12) (layer F.Fab)
    (effects (font (size 1 1) (thickness 0.15)))
  )
  (fp_line (start -2.49 -3) (end -2.49 2.08) (layer F.Fab) (width 0.1))
  (fp_line (start -2.49 2.08) (end 13.43 2.08) (layer F.Fab) (width 0.1))
  (fp_line (start 13.43 2.08) (end 13.43 -3) (layer F.Fab) (width 0.1))
  (fp_line (start 13.43 -3) (end -2.49 -3) (layer F.Fab) (width 0.1))
  (fp_line (start -2.49 -1.73) (end 13.43 -1.73) (layer F.Fab) (width 0.1))
  (fp_line (start 2.995 -3) (end 2.995 -1.73) (layer F.Fab) (width 0.1))
  (fp_line (start 7.225 -3) (end 7.225 -1.73) (layer F.Fab) (width 0.1))
  (fp_line (start -2.611 -3.12) (end 13.55 -3.12) (layer F.SilkS) (width 0.12))
  (fp_line (start -2.611 2.2) (end 13.55 2.2) (layer F.SilkS) (width 0.12))
  (fp_line (start -2.611 -3.12) (end -2.611 2.2) (layer F.SilkS) (width 0.12))
  (fp_line (start 13.55 -3.12) (end 13.55 2.2) (layer F.SilkS) (width 0.12))
  (fp_line (start -2.611 -1.61) (end -1.4 -1.61) (layer F.SilkS) (width 0.12))
  (fp_line (start 1.4 -1.61) (end 9.54 -1.61) (layer F.SilkS) (width 0.12))
  (fp_line (start 12.34 -1.61) (end 13.55 -1.61) (layer F.SilkS) (width 0.12))
  (fp_line (start 2.995 -3.12) (end 2.995 -1.61) (layer F.SilkS) (width 0.12))
  (fp_line (start 7.225 -3.12) (end 7.225 -1.61) (layer F.SilkS) (width 0.12))
  (fp_line (start -2.74 -3.25) (end -2.74 2.33) (layer F.CrtYd) (width 0.05))
  (fp_line (start -2.74 2.33) (end 13.69 2.33) (layer F.CrtYd) (width 0.05))
  (fp_line (start 13.69 2.33) (end 13.69 -3.25) (layer F.CrtYd) (width 0.05))
  (fp_line (start 13.69 -3.25) (end -2.74 -3.25) (layer F.CrtYd) (width 0.05))
  (pad 1 thru_hole rect (at 0 0) (size 2.5 3.5) (drill 1.5) (layers *.Cu *.Mask))
  (pad 2 thru_hole oval (at 10.94 0) (size 2.5 3.5) (drill 1.5) (layers *.Cu *.Mask))
  (model ${KISYS3DMOD}/TO_SOT_Packages_THT.3dshapes/TO-218-2_SOT93_Vertical.wrl
    (at (xyz 0 0 0))
    (scale (xyz 0.393701 0.393701 0.393701))
    (rotate (xyz 0 0 0))
  )
  (model TO_SOT_Packages_THT.3dshapes/TO-218_SOT93_Vertical.wrl
    (at (xyz 0.215 0 0))
    (scale (xyz 1 1 1))
    (rotate (xyz 0 0 0))
  )
)
